{
    "prices": [
        {
            "packageName": "Bayi",
            "discPrice": "14.900",
            "normalPrice": "19.900",
            "period": "bln",
            "totalUsers": 938,
            "features": [
                "0.5X RESOURCE POWER",
                "500 MB | Disk Space",
                "Unlimited | BandWidth",
                "Unlimited | Databases",
                "1 | Domain",
                "Instant | Backup",
                "Unlimited SSL | Gratis Selamanya"
            ],
            "buttonLabel": "Pilih Sekarang",
            "isBestSeller": false
        },
        {
            "packageName": "Pelajar",
            "discPrice": "23.450",
            "normalPrice": "46.900",
            "period": "bln",
            "totalUsers": 4.168,
            "features": [
                "1X RESOURCE POWER",
                "Unlimited | Disk Space",
                "Unlimited | BandWidth",
                "Unlimited | POP3 Email",
                "Unlimited | Databases",
                "10 | Addon Domains",
                "Instant | Backup",
                "Domain Gratis | Selamanya",
                "Unlimited SSL | Gratis Selamanya"
            ],
            "buttonLabel": "Pilih Sekarang",
            "isBestSeller": false
        },
        {
            "packageName": "Personal",
            "discPrice": "38.900",
            "normalPrice": "58.900",
            "period": "bln",
            "totalUsers": 10.017,
            "features": [
                "2X RESOURCE POWER",
                "Unlimited | Disk Space",
                "Unlimited | BandWidth",
                "Unlimited | POP3 Email",
                "Unlimited | Databases",
                "Unlimited | Addon Domains",
                "Instant | Backup",
                "Domain Gratis | Selamanya",
                "Unlimited SSL | Gratis Selamanya",
                "Private | Name Server",
                "SpamAssasin | Mail Protection"
            ],
            "buttonLabel": "Pilih Sekarang",
            "isBestSeller": true
        },
        {
            "packageName": "Bisnis",
            "discPrice": "65.900",
            "normalPrice": "109.900",
            "period": "bln",
            "totalUsers": 3.552,
            "features": [
                "3X RESOURCE POWER",
                "Unlimited | Disk Space",
                "Unlimited | BandWidth",
                "Unlimited | POP3 Email",
                "Unlimited | Databases",
                "Unlimited | Addon Domains",
                "Magic Auto | Backup & Restore",
                "Domain Gratis | Selamanya",
                "Unlimited SSL | Gratis Selamanya",
                "Private | Name Server",
                "Prioritas | Layanan Support",
                "*,*,*,*,*",
                "SpamExpoert | Pro Mail Protection"
            ],
            "buttonLabel": "Diskon 40%",
            "isBestSeller": false
        }
    ]    
}